309 대화
310 주엽
311 정발산
312 마두
313 백석
314 대곡
315 화정
316 원당
317 원흥
318 삼송
319 지축
320 구파발
321 연신내
322 불광
323 녹번
324 홍제
325 무악재
326 독립문
327 경복궁
328 안국
329 종로3가
330 을지로3가
331 충무로
332 동대입구
333 약수
334 금호
335 옥수
336 압구정
337 신사
338 잠원
339 고속터미널
340 교대
341 남부터미널
342 양재
343 매봉
344 도곡
345 대치
346 학여울
347 대청
348 일원
349 수서
350 가락시장
351 경찰병원
352 오금
