K210 왕십리
K211 서울숲
K212 압구정로데오
K213 강남구청
K214 선정릉
K215 선릉
K216 한티
K217 도곡
K218 구룡
K219 개포동
K220 대모산입구
K221 수서
K222 복정
K223 가천대
K224 태평
K225 모란
K226 야탑
K227 이매
K228 서현
K229 수내
K230 정자
K231 미금
K232 오리
K233 죽전
K234 보정
K235 구성
K236 신갈
K237 기흥
K238 상갈
K239 청명
K240 영통
K241 망포
K242 매탄권선
K243 수원시청
K244 매교
K245 수원
